 , , , , , , , , , , , , , , , , , , , , , , , 
 ,0, , , , , , , , , , , , , , , , , , , , , , 
 ,1,1, , , , , , , , , , , , , , , , , , , , , 
 ,2,2,2, , , , , , , , , , , , , , , , , , , , 
 ,2,3,3,3, , , , , , , , , , , , , , , , , , , 
 ,4,4,4,4,4, , , , , , , , , , , , , , , , , , 
 ,3,5,5,5,5,5, , , , , , , , , , , , , , , , , 
 ,5,6,6,6,6,6,6, , , , , , , , , , , , , , , , 
 ,3,5,6,7,7,7,7,7, , , , , , , , , , , , , , , 
 ,7,8,8,8,8,8,8,8,8, , , , , , , , , , , , , , 
 ,5,9,9,9,9,9,9,9,9,9, , , , , , , , , , , , , 
 ,8,10,10,10,10,10,10,10,10,10,10, , , , , , , , , , , , 
 ,4,7,9,11,11,11,11,11,11,11,11,11, , , , , , , , , , , 
 ,9,12,12,12,12,12,12,12,12,12,12,12,12, , , , , , , , , , 
 ,6,11,12,13,13,13,13,13,13,13,13,13,13,13, , , , , , , , , 
 ,9,13,14,14,14,14,14,14,14,14,14,14,14,14,14, , , , , , , , 
 ,4,7,10,11,13,13,14,15,15,15,15,15,15,15,15,15, , , , , , , 
 ,11,14,15,16,16,16,16,16,16,16,16,16,16,16,16,16,16, , , , , , 
 ,8,15,16,17,17,17,17,17,17,17,17,17,17,17,17,17,17,17, , , , , 
 ,13,18,18,18,18,18,18,18,18,18,18,18,18,18,18,18,18,18,18, , , , 
 ,6,11,15,19,19,19,19,19,19,19,19,19,19,19,19,19,19,19,19,19, , , 
 ,14,20,20,20,20,20,20,20,20,20,20,20,20,20,20,20,20,20,20,20,20, , 
 ,9,17,19,21,21,21,21,21,21,21,21,21,21,21,21,21,21,21,21,21,21,21, 
 ,13,20,22,22,22,22,22,22,22,22,22,22,22,22,22,22,22,22,22,22,22,22,22
